…
Done.
# A tibble: 56,038 × 37
   qseqid.x      gi     accession mismatch_forward forward_start forward_stop staxids distinct_entries.x qseqid.y
   <chr>         <chr>  <chr>     <chr>                    <int>        <int> <chr>                <int> <chr>   
 1 forward_row_1 10483… 3JD5_A    2                          223          243 9913                     2 reverse…
 2 forward_row_1 81051… 5AJ3_A    2                          228          248 9823                     2 reverse…
 3 forward_row_1 22540… 7PNT_A    3                          224          244 10090                    2 reverse…
 4 forward_row_1 22540… 7PNV_A    3                          224          244 10090                    2 reverse…
 5 forward_row_1 25190… 8OIN_AA   2                          226          246 9823                     2 reverse…
 6 forward_row_1 25096… 8OIP_AA   2                          228          248 9823                     2 reverse…
 7 forward_row_1 18164… AB000667… 0                         2697         2715 8255                     2 reverse…
 8 forward_row_1 45869… AB018224… 1                          228          248 76798                    2 reverse…
 9 forward_row_1 45869… AB018225… 1                          228          248 83387                    2 reverse…
10 forward_row_1 45869… AB018226… 1                          229          247 83388                    2 reverse…
# ℹ 56,028 more rows
# ℹ 28 more variables: mismatch_reverse <chr>, reverse_start <int>, reverse_stop <int>,
#   distinct_entries.y <int>, product_length <dbl>, taxid <int>, species <chr>, superkingdom <chr>,
#   kingdom <chr>, phylum <chr>, subphylum <chr>, superclass <chr>, class <chr>, subclass <chr>, order <chr>,
#   family <chr>, subfamily <chr>, genus <chr>, infraorder <chr>, subcohort <chr>, superorder <chr>,
#   superfamily <chr>, tribe <chr>, subspecies <chr>, subgenus <chr>, species.group <chr>, parvorder <chr>,
#   varietas <chr>
# ℹ Use `print(n = ...)` to see more rows
```
…
